{
  "Comment.nvim": { "branch": "master", "commit": "e30b7f2008e52442154b66f7c519bfd2f1e32acb" },
  "LuaSnip": { "branch": "master", "commit": "03c8e67eb7293c404845b3982db895d59c0d1538" },
  "bufferline.nvim": { "branch": "main", "commit": "655133c3b4c3e5e05ec549b9f8cc2894ac6f51b3" },
  "catppuccin": { "branch": "main", "commit": "4965db2d6155c25db4e8417465fc2703fdf4c2b7" },
  "cmp-buffer": { "branch": "main", "commit": "3022dbc9166796b644a841a02de8dd1cc1d311fa" },
  "cmp-nvim-lsp": { "branch": "main", "commit": "99290b3ec1322070bcfb9e846450a46f6efa50f0" },
  "cmp-path": { "branch": "main", "commit": "91ff86cd9c29299a64f968ebb45846c485725f23" },
  "cmp_luasnip": { "branch": "master", "commit": "98d9cb5c2c38532bd9bdb481067b20fea8f32e90" },
  "conform.nvim": { "branch": "master", "commit": "363243c03102a531a8203311d4f2ae704c620d9b" },
  "dressing.nvim": { "branch": "master", "commit": "56ef6a969a4990d938c5fed40c370f65e125fc97" },
  "friendly-snippets": { "branch": "main", "commit": "efff286dd74c22f731cdec26a70b46e5b203c619" },
  "gitsigns.nvim": { "branch": "main", "commit": "9b36d497495436c135659902054ee637e0ba6021" },
  "lazy.nvim": { "branch": "main", "commit": "7527af40ddd4a93a02911be570b32609b9d4ea53" },
  "lsp-progress.nvim": { "branch": "main", "commit": "f3df1df8f5ea33d082db047b5d2d2b83cc01cd8a" },
  "lspkind.nvim": { "branch": "master", "commit": "d79a1c3299ad0ef94e255d045bed9fa26025dab6" },
  "lualine.nvim": { "branch": "master", "commit": "2a5bae925481f999263d6f5ed8361baef8df4f83" },
  "mason-lspconfig.nvim": { "branch": "main", "commit": "f75e877f5266e87523eb5a18fcde2081820d087b" },
  "mason-tool-installer.nvim": { "branch": "main", "commit": "374c78d3ebb5c53f43ea6bd906b6587b5e899b9e" },
  "mason.nvim": { "branch": "main", "commit": "e2f7f9044ec30067bc11800a9e266664b88cda22" },
  "neo-tree.nvim": { "branch": "v2.x", "commit": "80dc74d081823649809f78370fa5b204aa9a853a" },
  "neodev.nvim": { "branch": "main", "commit": "46aa467dca16cf3dfe27098042402066d2ae242d" },
  "nui.nvim": { "branch": "main", "commit": "53e907ffe5eedebdca1cd503b00aa8692068ca46" },
  "nvim-autopairs": { "branch": "master", "commit": "3d02855468f94bf435db41b661b58ec4f48a06b7" },
  "nvim-cmp": { "branch": "main", "commit": "12509903a5723a876abd65953109f926f4634c30" },
  "nvim-lint": { "branch": "master", "commit": "789b7ada1b4f00e08d026dffde410dcfa6a0ba87" },
  "nvim-lsp-file-operations": { "branch": "master", "commit": "9744b738183a5adca0f916527922078a965515ed" },
  "nvim-lspconfig": { "branch": "master", "commit": "66bc018936c6ff76beb75f89d986af6442db4001" },
  "nvim-metals": { "branch": "main", "commit": "ef6e9957aae0ade96eb64d30eaf5d5b638a55703" },
  "nvim-treesitter": { "branch": "master", "commit": "53a6b3993f5803378d4d031bf114c0b125a52ba8" },
  "nvim-web-devicons": { "branch": "master", "commit": "402377242b04be3f4f0f3720bd952df86e946c30" },
  "nvim-window-picker": { "branch": "main", "commit": "0dfef64eaf063e1cd27983ab11a30e7bc5b74fac" },
  "plenary.nvim": { "branch": "master", "commit": "3707cdb1e43f5cea73afb6037e6494e7ce847a66" },
  "telescope-fzf-native.nvim": { "branch": "main", "commit": "dae2eac9d91464448b584c7949a31df8faefec56" },
  "telescope.nvim": { "branch": "0.1.x", "commit": "a0bbec21143c7bc5f8bb02e0005fa0b982edc026" },
  "todo-comments.nvim": { "branch": "main", "commit": "304a8d204ee787d2544d8bc23cd38d2f929e7cc5" },
  "toggleterm.nvim": { "branch": "main", "commit": "50ea089fc548917cc3cc16b46a8211833b9e3c7c" },
  "which-key.nvim": { "branch": "main", "commit": "0e76a87ac51772569aec678dc74baa8e2a86100c" }
}
